[
  {
    "Userid": "1",
    "name":"Mohd Khairul Shukeri",
    "Date": "2020-06-11",
    "locationName": "Kampung Atuk",
    "locationAddress": "Kampung Durian runtuh",
    "checkInTime": "8:40 AM",
    "checkOutTime": ""
  },
  {
    "Userid": "1",
    "name":"Ahmad Zhafri",
    "Date": "2020-06-12",
    "locationName": "Kampung Atuk",
    "locationAddress": "Kampung Durian runtuh",
    "checkInTime": "8:40 AM",
    "checkOutTime": ""
  },
  {

    "Userid": "1",
    "name":"Zarina Khairuddin",
    "Date": "2020-06-13",
    "locationName": "Home",
    "locationAddress": "18 Jalan 12 , Taman Gombak",
    "checkInTime": "8:00 AM",
    "checkOutTime": ""

  },
  {

    "Userid": "1",
    "name":"Mohd Nazri",
    "Date": "2020-06-14",
    "locationName": "Home Gombak",
    "locationAddress": "10 Jalan 8 , Taman Gombak",
    "checkInTime": "",
    "checkOutTime": ""
  },
  {

    "Userid": "1",
    "name":"syikin my",
    "Date": "2020-06-15",
    "locationName": "Homestay",
    "locationAddress": "18 Jalan 1 , Taman Permata",
    "checkInTime": "",
    "checkOutTime": ""
  }

]